…
    ## ── Conflicts ────────────────────── tidyverse_conflicts() ──
    ## ✖ dplyr::filter() masks stats::filter()
    ## ✖ dplyr::lag()    masks stats::lag()

``` r
data <- installed.packages()

## how many packages?
data.tb <- data %>% as.tibble()
data.tb
```

    ## # A tibble: 292 x 16
    ##    Package  LibPath  Version Priority Depends  Imports LinkingTo Suggests 
    ##    <chr>    <chr>    <chr>   <chr>    <chr>    <chr>   <chr>     <chr>    
    ##  1 abind    /Librar… 1.4-5   <NA>     R (>= 1… method… <NA>      <NA>     
    ##  2 acepack  /Librar… 1.4.1   <NA>     <NA>     <NA>    <NA>      testthat 
    ##  3 arm      /Librar… 1.9-3   <NA>     R (>= 3… abind,… <NA>      <NA>     
    ##  4 assertt… /Librar… 0.2.0   <NA>     <NA>     tools   <NA>      testthat 
    ##  5 babynam… /Librar… 0.3.0   <NA>     R (>= 2… tibble  <NA>      <NA>     
    ##  6 backpor… /Librar… 1.1.2   <NA>     R (>= 3… utils   <NA>      <NA>     
    ##  7 base     /Librar… 3.4.3   base     <NA>     <NA>    <NA>      methods  
    ##  8 base64e… /Librar… 0.1-3   <NA>     R (>= 2… <NA>    <NA>      <NA>     
    ##  9 bayespl… /Librar… 1.4.0   <NA>     R (>= 3… "dplyr… <NA>      "arm, gr…
    ## 10 betareg  /Librar… 3.1-0   <NA>     R (>= 3… "graph… <NA>      car, lat…
    ## # ... with 282 more rows, and 8 more variables: Enhances <chr>,
    ## #   License <chr>, License_is_FOSS <chr>, License_restricts_use <chr>,
    ## #   OS_type <chr>, MD5sum <chr>, NeedsCompilation <chr>, Built <chr>
…
    ##  [1] "Package"               "LibPath"              
    ##  [3] "Version"               "Priority"             
    ##  [5] "Depends"               "Imports"              
    ##  [7] "LinkingTo"             "Suggests"             
    ##  [9] "Enhances"              "License"              
    ## [11] "License_is_FOSS"       "License_restricts_use"
    ## [13] "OS_type"               "MD5sum"               
    ## [15] "NeedsCompilation"      "Built"

``` r
data.tb
```

    ## # A tibble: 292 x 16
    ##    Package  LibPath  Version Priority Depends  Imports LinkingTo Suggests 
    ##    <chr>    <chr>    <chr>   <chr>    <chr>    <chr>   <chr>     <chr>    
    ##  1 abind    /Librar… 1.4-5   <NA>     R (>= 1… method… <NA>      <NA>     
    ##  2 acepack  /Librar… 1.4.1   <NA>     <NA>     <NA>    <NA>      testthat 
    ##  3 arm      /Librar… 1.9-3   <NA>     R (>= 3… abind,… <NA>      <NA>     
    ##  4 assertt… /Librar… 0.2.0   <NA>     <NA>     tools   <NA>      testthat 
    ##  5 babynam… /Librar… 0.3.0   <NA>     R (>= 2… tibble  <NA>      <NA>     
    ##  6 backpor… /Librar… 1.1.2   <NA>     R (>= 3… utils   <NA>      <NA>     
    ##  7 base     /Librar… 3.4.3   base     <NA>     <NA>    <NA>      methods  
    ##  8 base64e… /Librar… 0.1-3   <NA>     R (>= 2… <NA>    <NA>      <NA>     
    ##  9 bayespl… /Librar… 1.4.0   <NA>     R (>= 3… "dplyr… <NA>      "arm, gr…
    ## 10 betareg  /Librar… 3.1-0   <NA>     R (>= 3… "graph… <NA>      car, lat…
    ## # ... with 282 more rows, and 8 more variables: Enhances <chr>,
    ## #   License <chr>, License_is_FOSS <chr>, License_restricts_use <chr>,
    ## #   OS_type <chr>, MD5sum <chr>, NeedsCompilation <chr>, Built <chr>
…
